%YAML 1.1
%TAG !u! tag:unity3d.com,2011:
--- !u!1045 &1
EditorBuildSettings:
  m_ObjectHideFlags: 0
  serializedVersion: 2
  m_Scenes:
  - enabled: 1
    path: Assets/Scenes/MainMenu.unity
    guid: 1bd4fb034965c6f4ebd1fd8bb2729586
  - enabled: 1
    path: Assets/Scenes/GameLevel.unity
    guid: 2cda990e2423bbf4892e6590ba056729
  - enabled: 1
    path: Assets/Scenes/GameOver.unity
    guid: fa5b2a1c9b4f2cc4186870020ac433da
  m_configObjects:
    com.unity.input.settings: {fileID: 11400000, guid: cdbd7869652e5e4428df72e2b4f74073, type: 2}
