%YAML 1.1
%TAG !u! tag:unity3d.com,2011:
--- !u!114 &11400000
MonoBehaviour:
  m_ObjectHideFlags: 0
  m_CorrespondingSourceObject: {fileID: 0}
  m_PrefabInstance: {fileID: 0}
  m_PrefabAsset: {fileID: 0}
  m_GameObject: {fileID: 0}
  m_Enabled: 1
  m_EditorHideFlags: 0
  m_Script: {fileID: 11500000, guid: 28b76bc99631edf428ca6875b5b1183e, type: 3}
  m_Name: New WaveConfig 1
  m_EditorClassIdentifier: 
  pathPrefab: {fileID: 4255281378496615561, guid: 881fcc36f54440b41ad3180e73db441d, type: 3}
  moveSpeed: 5.78
  enemyPreFabs:
  - {fileID: 2102136067860775018, guid: 34e40bec53e22c340b86fd93aa5b6eb2, type: 3}
  - {fileID: 2102136067860775018, guid: 34e40bec53e22c340b86fd93aa5b6eb2, type: 3}
  - {fileID: 2102136067860775018, guid: 34e40bec53e22c340b86fd93aa5b6eb2, type: 3}
