%YAML 1.1
%TAG !u! tag:unity3d.com,2011:
--- !u!1001 &5363201811419567604
PrefabInstance:
  m_ObjectHideFlags: 0
  serializedVersion: 2
  m_Modification:
    m_TransformParent: {fileID: 0}
    m_Modifications:
    - target: {fileID: 1666072549635579209, guid: 50f5f44e5087c6149b37ead326af63be, type: 3}
      propertyPath: m_LocalPosition.x
      value: 2.64
      objectReference: {fileID: 0}
    - target: {fileID: 1666072549635579209, guid: 50f5f44e5087c6149b37ead326af63be, type: 3}
      propertyPath: m_LocalPosition.y
      value: 5.71
      objectReference: {fileID: 0}
    - target: {fileID: 2801961352924226561, guid: 50f5f44e5087c6149b37ead326af63be, type: 3}
      propertyPath: m_LocalPosition.x
      value: 4.21
      objectReference: {fileID: 0}
    - target: {fileID: 2801961352924226561, guid: 50f5f44e5087c6149b37ead326af63be, type: 3}
      propertyPath: m_LocalPosition.y
      value: 4.95
      objectReference: {fileID: 0}
    - target: {fileID: 3345917002249660616, guid: 50f5f44e5087c6149b37ead326af63be, type: 3}
      propertyPath: m_LocalPosition.x
      value: -7.34
      objectReference: {fileID: 0}
    - target: {fileID: 3345917002249660616, guid: 50f5f44e5087c6149b37ead326af63be, type: 3}
      propertyPath: m_LocalPosition.y
      value: -4.09
      objectReference: {fileID: 0}
    - target: {fileID: 3462160918235119054, guid: 50f5f44e5087c6149b37ead326af63be, type: 3}
      propertyPath: m_LocalPosition.x
      value: -4.92
      objectReference: {fileID: 0}
    - target: {fileID: 3462160918235119054, guid: 50f5f44e5087c6149b37ead326af63be, type: 3}
      propertyPath: m_LocalPosition.y
      value: 1.7
      objectReference: {fileID: 0}
    - target: {fileID: 3683284433520199395, guid: 50f5f44e5087c6149b37ead326af63be, type: 3}
      propertyPath: m_LocalPosition.x
      value: -3.06
      objectReference: {fileID: 0}
    - target: {fileID: 3683284433520199395, guid: 50f5f44e5087c6149b37ead326af63be, type: 3}
      propertyPath: m_LocalPosition.y
      value: -1.44
      objectReference: {fileID: 0}
    - target: {fileID: 3687672180884435401, guid: 50f5f44e5087c6149b37ead326af63be, type: 3}
      propertyPath: m_LocalPosition.x
      value: -3.25
      objectReference: {fileID: 0}
    - target: {fileID: 3687672180884435401, guid: 50f5f44e5087c6149b37ead326af63be, type: 3}
      propertyPath: m_LocalPosition.y
      value: 1.78
      objectReference: {fileID: 0}
    - target: {fileID: 3775906656442994548, guid: 50f5f44e5087c6149b37ead326af63be, type: 3}
      propertyPath: m_LocalPosition.x
      value: 1.86
      objectReference: {fileID: 0}
    - target: {fileID: 3775906656442994548, guid: 50f5f44e5087c6149b37ead326af63be, type: 3}
      propertyPath: m_LocalPosition.y
      value: 3.1
      objectReference: {fileID: 0}
    - target: {fileID: 4327243282324787775, guid: 50f5f44e5087c6149b37ead326af63be, type: 3}
      propertyPath: m_LocalPosition.x
      value: -2.57
      objectReference: {fileID: 0}
    - target: {fileID: 4327243282324787775, guid: 50f5f44e5087c6149b37ead326af63be, type: 3}
      propertyPath: m_LocalPosition.y
      value: 0.94
      objectReference: {fileID: 0}
    - target: {fileID: 4873802757971638749, guid: 50f5f44e5087c6149b37ead326af63be, type: 3}
      propertyPath: m_LocalPosition.x
      value: -4.2
      objectReference: {fileID: 0}
    - target: {fileID: 4873802757971638749, guid: 50f5f44e5087c6149b37ead326af63be, type: 3}
      propertyPath: m_LocalPosition.y
      value: -2.99
      objectReference: {fileID: 0}
    - target: {fileID: 5265655760195871998, guid: 50f5f44e5087c6149b37ead326af63be, type: 3}
      propertyPath: m_LocalPosition.x
      value: -4.84
      objectReference: {fileID: 0}
    - target: {fileID: 5265655760195871998, guid: 50f5f44e5087c6149b37ead326af63be, type: 3}
      propertyPath: m_LocalPosition.y
      value: -0.57
      objectReference: {fileID: 0}
    - target: {fileID: 5987032286683017361, guid: 50f5f44e5087c6149b37ead326af63be, type: 3}
      propertyPath: m_LocalPosition.x
      value: 3.18
      objectReference: {fileID: 0}
    - target: {fileID: 5987032286683017361, guid: 50f5f44e5087c6149b37ead326af63be, type: 3}
      propertyPath: m_LocalPosition.y
      value: 7.87
      objectReference: {fileID: 0}
    - target: {fileID: 6632070505131112020, guid: 50f5f44e5087c6149b37ead326af63be, type: 3}
      propertyPath: m_LocalPosition.x
      value: 1.7
      objectReference: {fileID: 0}
    - target: {fileID: 6632070505131112020, guid: 50f5f44e5087c6149b37ead326af63be, type: 3}
      propertyPath: m_LocalPosition.y
      value: 6.85
      objectReference: {fileID: 0}
    - target: {fileID: 7402336416798162605, guid: 50f5f44e5087c6149b37ead326af63be, type: 3}
      propertyPath: m_LocalPosition.x
      value: 0.31
      objectReference: {fileID: 0}
    - target: {fileID: 7402336416798162605, guid: 50f5f44e5087c6149b37ead326af63be, type: 3}
      propertyPath: m_LocalPosition.y
      value: 2.38
      objectReference: {fileID: 0}
    - target: {fileID: 8169565456110518653, guid: 50f5f44e5087c6149b37ead326af63be, type: 3}
      propertyPath: m_RootOrder
      value: 0
      objectReference: {fileID: 0}
    - target: {fileID: 8169565456110518653, guid: 50f5f44e5087c6149b37ead326af63be, type: 3}
      propertyPath: m_LocalPosition.x
      value: 0
      objectReference: {fileID: 0}
    - target: {fileID: 8169565456110518653, guid: 50f5f44e5087c6149b37ead326af63be, type: 3}
      propertyPath: m_LocalPosition.y
      value: 0
      objectReference: {fileID: 0}
    - target: {fileID: 8169565456110518653, guid: 50f5f44e5087c6149b37ead326af63be, type: 3}
      propertyPath: m_LocalPosition.z
      value: 0
      objectReference: {fileID: 0}
    - target: {fileID: 8169565456110518653, guid: 50f5f44e5087c6149b37ead326af63be, type: 3}
      propertyPath: m_LocalRotation.w
      value: 1
      objectReference: {fileID: 0}
    - target: {fileID: 8169565456110518653, guid: 50f5f44e5087c6149b37ead326af63be, type: 3}
      propertyPath: m_LocalRotation.x
      value: 0
      objectReference: {fileID: 0}
    - target: {fileID: 8169565456110518653, guid: 50f5f44e5087c6149b37ead326af63be, type: 3}
      propertyPath: m_LocalRotation.y
      value: 0
      objectReference: {fileID: 0}
    - target: {fileID: 8169565456110518653, guid: 50f5f44e5087c6149b37ead326af63be, type: 3}
      propertyPath: m_LocalRotation.z
      value: 0
      objectReference: {fileID: 0}
    - target: {fileID: 8169565456110518653, guid: 50f5f44e5087c6149b37ead326af63be, type: 3}
      propertyPath: m_LocalEulerAnglesHint.x
      value: 0
      objectReference: {fileID: 0}
    - target: {fileID: 8169565456110518653, guid: 50f5f44e5087c6149b37ead326af63be, type: 3}
      propertyPath: m_LocalEulerAnglesHint.y
      value: 0
      objectReference: {fileID: 0}
    - target: {fileID: 8169565456110518653, guid: 50f5f44e5087c6149b37ead326af63be, type: 3}
      propertyPath: m_LocalEulerAnglesHint.z
      value: 0
      objectReference: {fileID: 0}
    - target: {fileID: 8169565456110518654, guid: 50f5f44e5087c6149b37ead326af63be, type: 3}
      propertyPath: m_Name
      value: Path 1
      objectReference: {fileID: 0}
    - target: {fileID: 9031054942786200324, guid: 50f5f44e5087c6149b37ead326af63be, type: 3}
      propertyPath: m_LocalPosition.x
      value: 0.27
      objectReference: {fileID: 0}
    - target: {fileID: 9031054942786200324, guid: 50f5f44e5087c6149b37ead326af63be, type: 3}
      propertyPath: m_LocalPosition.y
      value: 0.57
      objectReference: {fileID: 0}
    m_RemovedComponents: []
  m_SourcePrefab: {fileID: 100100000, guid: 50f5f44e5087c6149b37ead326af63be, type: 3}
